{
    "KPackageStructure": "Plasma/Applet",
    "KPlugin": {
        "Authors": [
            {
                "Email": "davide.bettio@kdemail.net",
                "Name": "Davide Bettio",
                "Name[ar]": "Davide Bettio",
                "Name[az]": "Davide Bettio",
                "Name[bg]": "Davide Bettio",
                "Name[ca@valencia]": "Davide Bettio",
                "Name[ca]": "Davide Bettio",
                "Name[cs]": "Davide Bettio",
                "Name[de]": "Davide Bettio",
                "Name[en_GB]": "Davide Bettio",
                "Name[eo]": "Davide Bettio",
                "Name[es]": "Davide Bettio",
                "Name[eu]": "Davide Bettio",
                "Name[fi]": "Davide Bettio",
                "Name[fr]": "Davide Bettio",
                "Name[gl]": "Davide Bettio",
                "Name[he]": "דוד בטיו",
                "Name[hu]": "Davide Bettio",
                "Name[ia]": "Davide Bettio",
                "Name[id]": "Davide Bettio",
                "Name[is]": "Davide Bettio",
                "Name[it]": "Davide Bettio",
                "Name[ja]": "Davide Bettio",
                "Name[ka]": "Davide Bettio",
                "Name[ko]": "Davide Bettio",
                "Name[lt]": "Davide Bettio",
                "Name[lv]": "Davide Bettio",
                "Name[nl]": "Davide Bettio",
                "Name[nn]": "Davide Bettio",
                "Name[pl]": "Davide Bettio",
                "Name[pt]": "Davide Bettio",
                "Name[pt_BR]": "Davide Bettio",
                "Name[ro]": "Davide Bettio",
                "Name[ru]": "Davide Bettio",
                "Name[sk]": "Davide Bettio",
                "Name[sl]": "Davide Bettio",
                "Name[sv]": "Davide Bettio",
                "Name[tr]": "Davide Bettio",
                "Name[uk]": "Davide Bettio",
                "Name[vi]": "Davide Bettio",
                "Name[x-test]": "xxDavide Bettioxx",
                "Name[zh_CN]": "Davide Bettio",
                "Name[zh_TW]": "Davide Bettio"
            }
        ],
        "BugReportUrl": "https://bugs.kde.org/enter_bug.cgi?product=kdeplasma-addons&component=timer",
        "Category": "Date and Time",
        "Description": "Countdown over a specified time period",
        "Description[ar]": "قم بالعد التنازلي خلال فترة زمنية محددة",
        "Description[az]": "Müəyyən bir vaxtın geri sayımı",
        "Description[bg]": "Обратно броене за определено време",
        "Description[ca@valencia]": "Compte arrere durant un període de temps especificat",
        "Description[ca]": "Compte enrere durant un període de temps especificat",
        "Description[cs]": "Odpočítávání událostí",
        "Description[de]": "Einen bestimmten Zeitabschnitt zurückzählen",
        "Description[en_GB]": "Countdown over a specified time period",
        "Description[eo]": "Retronombrado dum difinita tempoperiodo",
        "Description[es]": "Cuenta atrás del tiempo indicado",
        "Description[eu]": "Atzekoz aurrera zenbatu zehaztutako denbora tarte batez",
        "Description[fi]": "Laskenta annetulle ajalle",
        "Description[fr]": "Lancer un décompte avec une période de temps spécifiée",
        "Description[gl]": "Conta atrás durante un tempo especificado",
        "Description[he]": "ספירה לאחור לפרק זמן מסוים",
        "Description[hu]": "Visszaszámlálás egy meghatározott időtartam alatt",
        "Description[ia]": "Computo a retro per unspecificate periodo de tempore",
        "Description[id]": "Hitung mundur selama jangka waktu yang ditentukan",
        "Description[is]": "Telja niður tíma fyrir tilgreint tímabil",
        "Description[it]": "Conto alla rovescia a partire da un momento specificato",
        "Description[ja]": "指定された時間をカウントダウンします",
        "Description[ka]": "უკუათვლა მითითებული დროის პერიოდისთვის",
        "Description[ko]": "지정한 시간 카운트다운하기",
        "Description[lt]": "Atvirkštinis skaičiavimas per nurodytą laiko intervalą",
        "Description[lv]": "Noteikta laika atskaitīšana",
        "Description[nl]": "Aftellen over een bepaalde periode",
        "Description[nn]": "Nedteljing til spesielle tidspunkt",
        "Description[pl]": "Odlicza dany czas",
        "Description[pt]": "Contagem decrescente para um dado período de tempo",
        "Description[pt_BR]": "Contagem regressiva de um período de tempo indicado",
        "Description[ro]": "Contorizează timpul descrescător pentru o anumită perioadă",
        "Description[ru]": "Обратный отчёт на выбранный период времени",
        "Description[sk]": "Odpočítavanie počas určitého časového obdobia",
        "Description[sl]": "Odštevaj določeni časovni interval",
        "Description[sv]": "Nerräkning under ett angivet tidsintervall",
        "Description[tr]": "Belirli bir zamandan geriye say",
        "Description[uk]": "Зворотній відлік визначеного часу",
        "Description[vi]": "Đếm ngược một khoảng thời gian chỉ định",
        "Description[x-test]": "xxCountdown over a specified time periodxx",
        "Description[zh_CN]": "指定时间长度进行倒计时",
        "Description[zh_TW]": "指定期間的倒數計時",
        "Icon": "chronometer",
        "Id": "org.kde.plasma.timer",
        "License": "GPL-2.0+",
        "Name": "Timer",
        "Name[ar]": "مؤقت",
        "Name[az]": "Vaxtölçən",
        "Name[bg]": "Таймер",
        "Name[ca@valencia]": "Temporitzador",
        "Name[ca]": "Temporitzador",
        "Name[cs]": "Časovač",
        "Name[de]": "Zeitgeber",
        "Name[en_GB]": "Timer",
        "Name[eo]": "Temporizilo",
        "Name[es]": "Temporizador",
        "Name[eu]": "Tenporizadorea",
        "Name[fi]": "Ajastin",
        "Name[fr]": "Minuteur",
        "Name[gl]": "Temporizador",
        "Name[he]": "קוצב זמן",
        "Name[hu]": "Időzítő",
        "Name[ia]": "Temporisator",
        "Name[id]": "Timer",
        "Name[is]": "Niðurtalning",
        "Name[it]": "Timer",
        "Name[ja]": "タイマー",
        "Name[ka]": "წამმზომი",
        "Name[ko]": "타이머",
        "Name[lt]": "Laikmatis",
        "Name[lv]": "Taimeris",
        "Name[nl]": "Timer",
        "Name[nn]": "Tidsur",
        "Name[pl]": "Czasomierz",
        "Name[pt]": "Cronómetro",
        "Name[pt_BR]": "Temporizador",
        "Name[ro]": "Temporizator",
        "Name[ru]": "Таймер",
        "Name[sk]": "Časovač",
        "Name[sl]": "Timer",
        "Name[sv]": "Tidtagare",
        "Name[tr]": "Sayaç",
        "Name[uk]": "Таймер",
        "Name[vi]": "Bộ hẹn giờ",
        "Name[x-test]": "xxTimerxx",
        "Name[zh_CN]": "计时器",
        "Name[zh_TW]": "計時器",
        "Website": "https://kde.org/plasma-desktop/"
    },
    "X-Plasma-API-Minimum-Version": "6.0"
}
