{
    "KPackageStructure": "KWin/WindowSwitcher",
    "KPlugin": {
        "Authors": [
            {
                "Email": "mgraesslin@kde.org",
                "Name": "Martin Gräßlin",
                "Name[ar]": "Martin Gräßlin",
                "Name[az]": "Martin Gräßlin",
                "Name[bg]": "Martin Gräßlin",
                "Name[ca@valencia]": "Martin Gräßlin",
                "Name[ca]": "Martin Gräßlin",
                "Name[cs]": "Martin Gräßlin",
                "Name[de]": "Martin Gräßlin",
                "Name[en_GB]": "Martin Gräßlin",
                "Name[eo]": "Martin Gräßlin",
                "Name[es]": "Martin Gräßlin",
                "Name[eu]": "Martin Gräßlin",
                "Name[fi]": "Martin Gräßlin",
                "Name[fr]": "Martin Gräßlin",
                "Name[gl]": "Martin Gräßlin",
                "Name[he]": "מרטין גרייסלין",
                "Name[hu]": "Martin Gräßlin",
                "Name[ia]": "Martin Gräßlin",
                "Name[id]": "Martin Gräßlin",
                "Name[is]": "Martin Gräßlin",
                "Name[it]": "Martin Gräßlin",
                "Name[ja]": "Martin Gräßlin",
                "Name[ka]": "მარტინ გრესსლინი",
                "Name[ko]": "Martin Gräßlin",
                "Name[lt]": "Martin Gräßlin",
                "Name[lv]": "Martin Gräßlin",
                "Name[nl]": "Martin Gräßlin",
                "Name[nn]": "Martin Gräßlin",
                "Name[pl]": "Martin Gräßlin",
                "Name[pt]": "Martin Gräßlin",
                "Name[pt_BR]": "Martin Gräßlin",
                "Name[ro]": "Martin Gräßlin",
                "Name[ru]": "Martin Gräßlin",
                "Name[sk]": "Martin Gräßlin",
                "Name[sl]": "Martin Gräßlin",
                "Name[sv]": "Martin Gräßlin",
                "Name[tr]": "Martin Gräßlin",
                "Name[uk]": "Martin Gräßlin",
                "Name[vi]": "Martin Gräßlin",
                "Name[x-test]": "xxMartin Gräßlinxx",
                "Name[zh_CN]": "Martin Gräßlin",
                "Name[zh_TW]": "Martin Gräßlin"
            }
        ],
        "Description": "A window switcher layout using large icons to represent the window",
        "Description[ar]": "مخطط مبدل النوافذ باستخدام أيقونات كبيرة لتمثيل النافذة",
        "Description[az]": "Pəncərələri göstərmək üçün böyük nişanlarla istifadə edilən pəncərə dəyişirici maketi",
        "Description[bg]": "Оформление на програмата за превключване на прозорци с използване на големи икони за представяне на прозорците",
        "Description[ca@valencia]": "Una disposició del commutador de finestres que utilitza icones grans per a representar la finestra",
        "Description[ca]": "Una disposició del commutador de finestres que usa icones grans per a representar la finestra",
        "Description[cs]": "Rozvržení přepínače oken používající velké ikony",
        "Description[de]": "Ein Fensterwechsler-Layout, das große Symbole zur Darstellung der Fenster verwendet",
        "Description[en_GB]": "A window switcher layout using large icons to represent the window",
        "Description[eo]": "Fenestra ŝaltilo-aranĝo uzante grandajn piktogramojn por reprezenti la fenestron",
        "Description[es]": "Un esquema de selección de ventanas que usa iconos grandes para representar las ventanas",
        "Description[eu]": "Leihoak aurkezteko ikono handiak erabiltzen dituen leiho-trukatzaile antolamendu bat",
        "Description[fi]": "Ikkunavaihtoasettelu suurin ikkunoita esittävin kuvakkein",
        "Description[fr]": "Une disposition du sélecteur de fenêtres utilisant de grandes icônes pour représenter les fenêtres",
        "Description[gl]": "Unha disposición do selector de xanelas que usa iconas grandes para representar a xanela",
        "Description[he]": "פריסת מחליף חלונות שמשתמשת בסמלים גדולים לייצוג החלון",
        "Description[hu]": "Ablakváltó elrendezés, amely nagyméretű ikonokat használ az ablakok megjelenítésére",
        "Description[ia]": "Un disposition de commutator de fenestra usante icones grande pro representar le fenestra",
        "Description[id]": "Sebuah tataletak pengalih jendela menggunakan ikon besar untuk mewakili jendela",
        "Description[is]": "Gluggaskiptir sem notar stór tákn til að tákna gluggana",
        "Description[it]": "Un selettore delle finestre che utilizza icone grandi per rappresentare la finestra",
        "Description[ja]": "ウィンドウを大きいアイコンで表すウィンドウスイッチャー",
        "Description[ka]": "ფანჯრების გადართვა დიდი ფანჯრის მაგიერ დიდი ხატულების საშუალებით",
        "Description[ko]": "큰 아이콘으로 창을 나타내는 창 전환기 레이아웃",
        "Description[lt]": "Langų perjungiklio išdėstymas, kuris langų atvaizdavimui naudoja dideles piktogramas",
        "Description[lv]": "Logu pārslēdzēja izkārtojums ar lielām logus reprezentējošām ikonām",
        "Description[nl]": "Een indeling van de vensterwisselaar die grote pictogrammen gebruikt om vensters te representeren",
        "Description[nn]": "Vindaugsbytar med store ikon for å representera vindauge",
        "Description[pl]": "Przełącznik okien z dużymi ikonami",
        "Description[pt]": "Uma disposição de mudança de janelas que usa ícones grandes para representar a janela",
        "Description[pt_BR]": "Um layout do seletor de janelas que usa ícones grandes para representá-las",
        "Description[ro]": "Aranjament pentru comutatorul de ferestre folosind pictograme mari pentru a reprezenta fereastra",
        "Description[ru]": "Переключатель окон, показывающий большие значки окон",
        "Description[sk]": "Rozloženie prepínača okien používajúce veľké ikony na reprezentáciu okna",
        "Description[sl]": "Razporeditev preklopa oken, kjer velike ikone predstavljajo okno",
        "Description[sv]": "En layout för fönsterbyte som använder stora ikoner för att representera fönstret",
        "Description[tr]": "Pencereyi göstermek için büyük simgeler kullanan bir pencere değiştirici yerleşimi",
        "Description[uk]": "Компонування засобу перемикання вікон з великими піктограмами вікон",
        "Description[vi]": "Bố cục trình chuyển cửa sổ dùng các biểu tượng cỡ lớn để biểu diễn cửa sổ",
        "Description[x-test]": "xxA window switcher layout using large icons to represent the windowxx",
        "Description[zh_CN]": "使用大图标代表窗口的窗口切换器布局",
        "Description[zh_TW]": "用大圖示代表視窗的視窗切換器佈局",
        "Icon": "preferences-system-windows-switcher-big-icons",
        "Id": "big_icons",
        "License": "GPL",
        "Name": "Large Icons",
        "Name[ar]": "أيقونات كبيرة",
        "Name[az]": "Böyük nişanlar",
        "Name[bg]": "Големи икони",
        "Name[ca@valencia]": "Icones grans",
        "Name[ca]": "Icones grans",
        "Name[cs]": "Velké ikony",
        "Name[de]": "Große Symbole",
        "Name[en_GB]": "Large Icons",
        "Name[eo]": "Grandaj piktogramoj",
        "Name[es]": "Iconos grandes",
        "Name[eu]": "Ikono handiak",
        "Name[fi]": "Suuret kuvakkeet",
        "Name[fr]": "Grandes icônes",
        "Name[gl]": "Iconas grandes",
        "Name[he]": "סמלים גדולים",
        "Name[hu]": "Nagy ikonok",
        "Name[ia]": "Icones grande",
        "Name[id]": "Ikon Besar",
        "Name[is]": "Stór tákn",
        "Name[it]": "Icone grandi",
        "Name[ja]": "大きいアイコン",
        "Name[ka]": "დიდი ხატულები",
        "Name[ko]": "큰 아이콘",
        "Name[lt]": "Didelės piktogramos",
        "Name[lv]": "Lielās ikonas",
        "Name[nl]": "Grote pictogrammen",
        "Name[nn]": "Store ikon",
        "Name[pl]": "Duże ikony",
        "Name[pt]": "Ícones Grandes",
        "Name[pt_BR]": "Ícones grandes",
        "Name[ro]": "Pictograme mari",
        "Name[ru]": "Крупные значки",
        "Name[sk]": "Veľké ikony",
        "Name[sl]": "Velike ikone",
        "Name[sv]": "Stora ikoner",
        "Name[tr]": "Büyük Simgeler",
        "Name[uk]": "Великі піктограми",
        "Name[vi]": "Biểu tượng lớn",
        "Name[x-test]": "xxLarge Iconsxx",
        "Name[zh_CN]": "大图标",
        "Name[zh_TW]": "大圖示"
    }
}
