{
    "KPackageStructure": "Plasma/Wallpaper",
    "KPlugin": {
        "Authors": [
            {
                "Email": "mart@kde.org",
                "Name": "Marco Martin",
                "Name[ar]": "Marco Martin",
                "Name[ast]": "Marco Martin",
                "Name[az]": "Marco Martin",
                "Name[bg]": "Marco Martin",
                "Name[ca@valencia]": "Marco Martin",
                "Name[ca]": "Marco Martin",
                "Name[cs]": "Marco Martin",
                "Name[de]": "Marco Martin",
                "Name[en_GB]": "Marco Martin",
                "Name[eo]": "Marco Martin",
                "Name[es]": "Marco Martin",
                "Name[eu]": "Marco Martin",
                "Name[fi]": "Marco Martin",
                "Name[fr]": "Marco Martin",
                "Name[gl]": "Marco Martin",
                "Name[he]": "מרקו מרטין",
                "Name[hu]": "Marco Martin",
                "Name[ia]": "Marco Martin",
                "Name[is]": "Marco Martin",
                "Name[it]": "Marco Martin",
                "Name[ja]": "Marco Martin",
                "Name[ka]": "მაკრო მარტინი",
                "Name[ko]": "Marco Martin",
                "Name[lt]": "Marco Martin",
                "Name[lv]": "Marco Martin",
                "Name[nl]": "Marco Martin",
                "Name[nn]": "Marco Martin",
                "Name[pl]": "Marco Martin",
                "Name[pt]": "Marco Martin",
                "Name[pt_BR]": "Marco Martin",
                "Name[ro]": "Marco Martin",
                "Name[ru]": "Marco Martin",
                "Name[sk]": "Marco Martin",
                "Name[sl]": "Marco Martin",
                "Name[sv]": "Marco Martin",
                "Name[tr]": "Marco Martin",
                "Name[uk]": "Marco Martin",
                "Name[vi]": "Marco Martin",
                "Name[x-test]": "xxMarco Martinxx",
                "Name[zh_CN]": "Marco Martin",
                "Name[zh_TW]": "Marco Martin"
            }
        ],
        "BugReportUrl": "https://bugs.kde.org/enter_bug.cgi?product=kdeplasma-addons&component=haenau",
        "Description": "Haenau wallpaper",
        "Description[ar]": "خلفية الطبقات",
        "Description[az]": "Haenau divar kağızı",
        "Description[bg]": "Haenau тапет",
        "Description[ca@valencia]": "Fons de pantalla Haenau",
        "Description[ca]": "Fons de pantalla Haenau",
        "Description[cs]": "Tapeta Haenau",
        "Description[de]": "Haenau-Hintergrundbild",
        "Description[en_GB]": "Haenau wallpaper",
        "Description[eo]": "Tapeto de Haenau",
        "Description[es]": "Fondo de pantalla Haenau",
        "Description[eu]": "Haenau horma-papera",
        "Description[fi]": "Haenau-taustakuva",
        "Description[fr]": "Fonds d'écran de Haenau",
        "Description[gl]": "Fondo de Haenau.",
        "Description[he]": "טפט של הנאו",
        "Description[hu]": "Haenau háttérkép",
        "Description[ia]": "Tapete de papiro de Haenau",
        "Description[is]": "Haenau-veggfóður",
        "Description[it]": "Sfondo Haenau",
        "Description[ja]": "Haenau 壁紙",
        "Description[ka]": "ჰაენაუს ფონის სურათი",
        "Description[ko]": "Haenau 배경 그림",
        "Description[lt]": "Haenau darbalaukio fonas",
        "Description[lv]": "„Haenau“ ekrāntapete",
        "Description[nl]": "Haenau achtergrondafbeelding",
        "Description[nn]": "Haenau-bakgrunnsbilete",
        "Description[pl]": "Tapeta Haenau",
        "Description[pt]": "Papel de parede Haenau",
        "Description[pt_BR]": "Papel de parede Haenau",
        "Description[ro]": "Tapet Haenau",
        "Description[ru]": "Обои Haenau",
        "Description[sk]": "Tapeta Haenau",
        "Description[sl]": "Tapeta Haenau",
        "Description[sv]": "Haenau skrivbordsunderlägg",
        "Description[tr]": "Haenau duvar kağıdı",
        "Description[uk]": "Шпалера Ганау",
        "Description[vi]": "Phông nền Haenau",
        "Description[x-test]": "xxHaenau wallpaperxx",
        "Description[zh_CN]": "色彩层次壁纸",
        "Description[zh_TW]": "Haenau 桌布",
        "EnabledByDefault": true,
        "Icon": "preferences-desktop-wallpaper",
        "Id": "org.kde.haenau",
        "License": "LGPL-2.1",
        "Name": "Haenau",
        "Name[ar]": "طبقات",
        "Name[az]": "Haenau",
        "Name[bg]": "Haenau",
        "Name[ca@valencia]": "Haenau",
        "Name[ca]": "Haenau",
        "Name[cs]": "Haenau",
        "Name[de]": "Haenau",
        "Name[en_GB]": "Haenau",
        "Name[eo]": "Haenau",
        "Name[es]": "Haenau",
        "Name[eu]": "Haenau",
        "Name[fi]": "Haenau",
        "Name[fr]": "Haenau",
        "Name[gl]": "Haenau",
        "Name[he]": "הנאו",
        "Name[hu]": "Haenau",
        "Name[ia]": "Haenau",
        "Name[is]": "Haenau",
        "Name[it]": "Haenau",
        "Name[ja]": "Haenau",
        "Name[ka]": "ჰაენაუ",
        "Name[ko]": "Haenau",
        "Name[lt]": "Haenau",
        "Name[lv]": "„Haenau“",
        "Name[nl]": "Haenau",
        "Name[nn]": "Haenau",
        "Name[pl]": "Haenau",
        "Name[pt]": "Haenau",
        "Name[pt_BR]": "Haenau",
        "Name[ro]": "Haenau",
        "Name[ru]": "Haenau",
        "Name[sk]": "Haenau",
        "Name[sl]": "Haenau",
        "Name[sv]": "Haenau",
        "Name[tr]": "Haenau",
        "Name[uk]": "Ганау",
        "Name[vi]": "Haenau",
        "Name[x-test]": "xxHaenauxx",
        "Name[zh_CN]": "色彩层次",
        "Name[zh_TW]": "Haenau",
        "Website": "https://kde.org/"
    }
}
