{
    "KPackageStructure": "KWin/WindowSwitcher",
    "KPlugin": {
        "Authors": [
            {
                "Email": "isma.af@gmail.com",
                "Name": "Ismael Asensio",
                "Name[ar]": "Ismael Asensio",
                "Name[az]": "Ismael Asensio",
                "Name[bg]": "Ismael Asensio",
                "Name[ca@valencia]": "Ismael Asensio",
                "Name[ca]": "Ismael Asensio",
                "Name[cs]": "Ismael Asensio",
                "Name[de]": "Ismael Asensio",
                "Name[en_GB]": "Ismael Asensio",
                "Name[eo]": "Ismael Asensio",
                "Name[es]": "Ismael Asensio",
                "Name[eu]": "Ismael Asensio",
                "Name[fi]": "Ismael Asensio",
                "Name[fr]": "Ismael Asensio",
                "Name[gl]": "Ismael Asensio",
                "Name[he]": "איסמעאל אסנסיו",
                "Name[hu]": "Ismael Asensio",
                "Name[ia]": "Ismael Asensio",
                "Name[id]": "Ismael Asensio",
                "Name[is]": "Ismael Asensio",
                "Name[it]": "Ismael Asensio",
                "Name[ja]": "Ismael Asensio",
                "Name[ka]": "Ismael Asensio",
                "Name[ko]": "Ismael Asensio",
                "Name[lt]": "Ismael Asensio",
                "Name[lv]": "Ismael Asensio",
                "Name[nl]": "Ismael Asensio",
                "Name[nn]": "Ismael Asensio",
                "Name[pl]": "Ismael Asensio",
                "Name[pt]": "Ismael Asensio",
                "Name[pt_BR]": "Ismael Asensio",
                "Name[ro]": "Ismael Asensio",
                "Name[ru]": "Ismael Asensio",
                "Name[sk]": "Ismael Asensio",
                "Name[sl]": "Ismael Asensio",
                "Name[sv]": "Ismael Asensio",
                "Name[tr]": "Ismael Asensio",
                "Name[uk]": "Ismael Asensio",
                "Name[vi]": "Ismael Asensio",
                "Name[x-test]": "xxIsmael Asensioxx",
                "Name[zh_CN]": "Ismael Asensio",
                "Name[zh_TW]": "Ismael Asensio"
            }
        ],
        "Description": "A Window Switcher layout showing thumbnails as a 3D card deck",
        "Description[ar]": "مبدل نوافذ يعرض كل النوافذ كمجموعة بطاقات ثلاثية الأبعاد",
        "Description[az]": "Miniatürləri 3D kard dəsti kimi göstərən pəncərə dəyişdirici maketi",
        "Description[bg]": "Оформление на превключвател на прозорци, показващо всички прозорци като миниатюри в триизмерен плот за игра на карти",
        "Description[ca@valencia]": "Una disposició del commutador de finestres que mostra les miniatures com una baralla de cartes en 3D",
        "Description[ca]": "Una disposició del commutador de finestres que mostra les miniatures com una baralla de cartes en 3D",
        "Description[cs]": "Rozvržení přepínače oken zobrazující náhledy jako 3D balíček karet",
        "Description[de]": "Ein Fensterwechsler-Layout, das Vorschauen aller Fenster als 3D-Kartenstapel anzeigt",
        "Description[en_GB]": "A Window Switcher layout showing thumbnails as a 3D card deck",
        "Description[eo]": "Enpaĝigo de Window Switcher montranta bildetojn kiel 3D-ludkartaro",
        "Description[es]": "Un esquema de selección de ventanas que muestra miniaturas como una baraja de cartas en 3D",
        "Description[eu]": "Koadro-txikiak 3Dko karta-sorta gisa erakusten dituen leiho-trukatzaile antolamendu bat",
        "Description[fi]": "Ikkunavaihtoasettelu, joka näyttää pienoiskuvat kolmiulotteisena korttipakkana",
        "Description[fr]": "Une disposition du sélecteur de fenêtres affichant des vignettes comme un jeu de cartes en 3D",
        "Description[gl]": "Unha disposición do selector de xanelas que mostra miniaturas nunha baralla 3D",
        "Description[he]": "פריסת מחליף חלונות שמציגה תמונות ממוזערות כחפיסת קלפים תלת־ממדית",
        "Description[hu]": "Ablakváltó elrendezés, amely 3D-s kártyapakliként jeleníti meg a bélyegképeket",
        "Description[ia]": "Un disposition de commutator de fenestra monstrante miniaturas como un joco de cartas",
        "Description[id]": "Sebuah tataletak pengalih jendela yang menampilkan gambar mini sebagai dek kartu 3D",
        "Description[is]": "Gluggaskiptir sem sýnir smámyndir í þrívíðum spilastokki",
        "Description[it]": "Una disposizione del selettore delle finestre che mostra le miniature come mazzo di carte 3D",
        "Description[ja]": "サムネイルを 3D カードデッキで表示するウィンドウスイッチャー",
        "Description[ka]": "ფანჯრების გადართვა 3D ბარათის მაგიდის ჩვენებით",
        "Description[ko]": "섬네일을 3D 카드 덱으로 표시하는 창 전환기 레이아웃",
        "Description[lt]": "Langų perjungiklio išdėstymas, atvaizduojantis miniatiūras kaip trimatę kortų kaladę",
        "Description[lv]": "Logu pārslēdzēja izkārtojums ar sīktēliem kā 3D kāršu kavu",
        "Description[nl]": "Een indeling van de vensterwisselaar die miniaturen toont als een 3D-kaartspel",
        "Description[nn]": "Vindaugsbytar som viser miniatyrbilete som ein 3D-kortstokk",
        "Description[pl]": "Przełącznik okien z miniaturami jako stos kart 3D",
        "Description[pt]": "Uma disposição de mudança de janelas que mostra miniaturas como um baralho de cartas em 3D",
        "Description[pt_BR]": "Um layout de seletor de janelas que mostra todas as miniaturas como um baralho de cartas 3D",
        "Description[ro]": "Aranjament pentru comutatorul de ferestre arătând miniaturi ca pachet de cărți 3D",
        "Description[ru]": "Переключатель окон, использующий объёмный эффект стопки карточек",
        "Description[sk]": "Rozloženie prepínača okien zobrazujúce miniatúry ako balíček 3D kariet",
        "Description[sl]": "Razporeditev preklopa oken, ki prikazuje predogledne sličice kot 3D zbirko kart",
        "Description[sv]": "En layout för fönsterbyte som visar miniatyrbilder som en tredimensionell kortlek",
        "Description[tr]": "Küçük görselleri 3B kart destesi olarak gösteren bir pencere değiştirici yerleşimi",
        "Description[uk]": "Компонування засобу перемикання вікон з мініатюрами вікон у вигляді колоди карт",
        "Description[vi]": "Bố cục trình chuyển cửa sổ hiển thị các hình nhỏ thành một tập bài 3D",
        "Description[x-test]": "xxA Window Switcher layout showing thumbnails as a 3D card deckxx",
        "Description[zh_CN]": "使用 3D 翻牌风格显示缩略图的窗口切换器",
        "Description[zh_TW]": "用 3D 牌組顯示預覽的視窗切換器佈局",
        "Icon": "preferences-system-windows-effect-flipswitch",
        "Id": "flipswitch",
        "License": "GPL",
        "Name": "Flip Switch",
        "Name[ar]": "مبدل التقليب",
        "Name[az]": "Kartlar",
        "Name[bg]": "Прелистване",
        "Name[ca@valencia]": "Canvi en roda",
        "Name[ca]": "Canvi en roda",
        "Name[cs]": "Kartotéka",
        "Name[de]": "3D-Fensterstapel",
        "Name[en_GB]": "Flip Switch",
        "Name[eo]": "Flip Ŝaltilo",
        "Name[es]": "Selector de volteo",
        "Name[eu]": "Biratze aldaketa",
        "Name[fi]": "Kääntövaihto",
        "Name[fr]": "Empilement en perspective",
        "Name[gl]": "Cambio en fila",
        "Name[he]": "בורר החלפה",
        "Name[hu]": "Tükrözés",
        "Name[ia]": "Commutator de  colpetto (Flip)",
        "Name[id]": "Flip Switch",
        "Name[is]": "Flettiskiptir",
        "Name[it]": "Selezione a pila",
        "Name[ja]": "フリップスイッチ",
        "Name[ka]": "გადართვა",
        "Name[ko]": "플립 전환기",
        "Name[lt]": "Gulsčiasis perjungiklis",
        "Name[lv]": "Apmešanas pārslēdzējs",
        "Name[nl]": "Flip Switch",
        "Name[nn]": "Stabelvekslar",
        "Name[pl]": "Przełączanie przebierane",
        "Name[pt]": "Mudança por Inversão",
        "Name[ro]": "Schimbare cu întoarcere",
        "Name[ru]": "Перелистывание",
        "Name[sk]": "Prepínač",
        "Name[sl]": "Stikalo pregiba",
        "Name[sv]": "Blädderbyte",
        "Name[tr]": "Anahtarı Ters Çevir",
        "Name[uk]": "Тасування карток",
        "Name[vi]": "Chuyển kiểu lật",
        "Name[x-test]": "xxFlip Switchxx",
        "Name[zh_CN]": "3D 翻牌切换",
        "Name[zh_TW]": "翻轉切換"
    }
}
